{
    "prepare_queue": {
        "installed": [],
        "uninstalled": []
    },
    "config_munge": {
        "files": {}
    },
    "installed_plugins": {
        "cordova-plugin-console": {
            "PACKAGE_NAME": "br.com.robsonazevedo.descarteecologico"
        },
        "cordova-plugin-device": {
            "PACKAGE_NAME": "br.com.robsonazevedo.descarteecologico"
        },
        "cordova-plugin-facebook4": {
            "APP_ID": "630773240420324",
            "APP_NAME": "“descarteEcologico”",
            "PACKAGE_NAME": "br.com.robsonazevedo.descarteecologico"
        },
        "cordova-plugin-geolocation": {
            "PACKAGE_NAME": "br.com.robsonazevedo.descarteecologico"
        }
    },
    "dependent_plugins": {
        "com.googlemaps.ios": {
            "PACKAGE_NAME": "br.com.robsonazevedo.descarteecologico"
        },
        "cordova-plugin-compat": {
            "PACKAGE_NAME": "br.com.robsonazevedo.descarteecologico"
        }
    }
}