-- Merging decision tree log ---
manifest
ADDED from /home/prod/ionic2/descarteEcologico/platforms/android/AndroidManifest.xml:2:1-35:12
	android:hardwareAccelerated
		ADDED from /home/prod/ionic2/descarteEcologico/platforms/android/AndroidManifest.xml:2:11-45
	xmlns:android
		ADDED from /home/prod/ionic2/descarteEcologico/platforms/android/AndroidManifest.xml:2:147-205
	package
		ADDED from /home/prod/ionic2/descarteEcologico/platforms/android/AndroidManifest.xml:2:98-146
		INJECTED from /home/prod/ionic2/descarteEcologico/platforms/android/AndroidManifest.xml
		INJECTED from /home/prod/ionic2/descarteEcologico/platforms/android/AndroidManifest.xml
	android:versionName
		ADDED from /home/prod/ionic2/descarteEcologico/platforms/android/AndroidManifest.xml:2:70-97
		INJECTED from /home/prod/ionic2/descarteEcologico/platforms/android/AndroidManifest.xml
		INJECTED from /home/prod/ionic2/descarteEcologico/platforms/android/AndroidManifest.xml
	android:versionCode
		ADDED from /home/prod/ionic2/descarteEcologico/platforms/android/AndroidManifest.xml:2:46-69
		INJECTED from /home/prod/ionic2/descarteEcologico/platforms/android/AndroidManifest.xml
		INJECTED from /home/prod/ionic2/descarteEcologico/platforms/android/AndroidManifest.xml
supports-screens
ADDED from /home/prod/ionic2/descarteEcologico/platforms/android/AndroidManifest.xml:3:5-191
	android:resizeable
		ADDED from /home/prod/ionic2/descarteEcologico/platforms/android/AndroidManifest.xml:3:106-131
	android:largeScreens
		ADDED from /home/prod/ionic2/descarteEcologico/platforms/android/AndroidManifest.xml:3:49-76
	android:anyDensity
		ADDED from /home/prod/ionic2/descarteEcologico/platforms/android/AndroidManifest.xml:3:23-48
	android:normalScreens
		ADDED from /home/prod/ionic2/descarteEcologico/platforms/android/AndroidManifest.xml:3:77-105
	android:xlargeScreens
		ADDED from /home/prod/ionic2/descarteEcologico/platforms/android/AndroidManifest.xml:3:160-188
	android:smallScreens
		ADDED from /home/prod/ionic2/descarteEcologico/platforms/android/AndroidManifest.xml:3:132-159
uses-permission#android.permission.INTERNET
ADDED from /home/prod/ionic2/descarteEcologico/platforms/android/AndroidManifest.xml:4:5-67
MERGED from [com.google.android.gms:play-services-maps:9.4.0] /home/prod/ionic2/descarteEcologico/platforms/android/build/intermediates/exploded-aar/com.google.android.gms/play-services-maps/9.4.0/AndroidManifest.xml:21:5-66
	android:name
		ADDED from /home/prod/ionic2/descarteEcologico/platforms/android/AndroidManifest.xml:4:22-64
application
ADDED from /home/prod/ionic2/descarteEcologico/platforms/android/AndroidManifest.xml:5:5-24:19
MERGED from [com.facebook.android:facebook-android-sdk:4.8.2] /home/prod/ionic2/descarteEcologico/platforms/android/build/intermediates/exploded-aar/com.facebook.android/facebook-android-sdk/4.8.2/AndroidManifest.xml:28:5-20
MERGED from [com.android.support:support-v4:24.2.0] /home/prod/ionic2/descarteEcologico/platforms/android/build/intermediates/exploded-aar/com.android.support/support-v4/24.2.0/AndroidManifest.xml:25:5-20
MERGED from [com.android.support:support-compat:24.2.0] /home/prod/ionic2/descarteEcologico/platforms/android/build/intermediates/exploded-aar/com.android.support/support-compat/24.2.0/AndroidManifest.xml:25:5-20
MERGED from [com.android.support:support-core-utils:24.2.0] /home/prod/ionic2/descarteEcologico/platforms/android/build/intermediates/exploded-aar/com.android.support/support-core-utils/24.2.0/AndroidManifest.xml:25:5-20
MERGED from [com.android.support:support-compat:24.2.0] /home/prod/ionic2/descarteEcologico/platforms/android/build/intermediates/exploded-aar/com.android.support/support-compat/24.2.0/AndroidManifest.xml:25:5-20
MERGED from [com.android.support:support-media-compat:24.2.0] /home/prod/ionic2/descarteEcologico/platforms/android/build/intermediates/exploded-aar/com.android.support/support-media-compat/24.2.0/AndroidManifest.xml:25:5-20
MERGED from [com.android.support:support-compat:24.2.0] /home/prod/ionic2/descarteEcologico/platforms/android/build/intermediates/exploded-aar/com.android.support/support-compat/24.2.0/AndroidManifest.xml:25:5-20
MERGED from [com.android.support:support-core-ui:24.2.0] /home/prod/ionic2/descarteEcologico/platforms/android/build/intermediates/exploded-aar/com.android.support/support-core-ui/24.2.0/AndroidManifest.xml:25:5-20
MERGED from [com.android.support:support-compat:24.2.0] /home/prod/ionic2/descarteEcologico/platforms/android/build/intermediates/exploded-aar/com.android.support/support-compat/24.2.0/AndroidManifest.xml:25:5-20
MERGED from [com.android.support:support-fragment:24.2.0] /home/prod/ionic2/descarteEcologico/platforms/android/build/intermediates/exploded-aar/com.android.support/support-fragment/24.2.0/AndroidManifest.xml:25:5-20
MERGED from [com.android.support:support-compat:24.2.0] /home/prod/ionic2/descarteEcologico/platforms/android/build/intermediates/exploded-aar/com.android.support/support-compat/24.2.0/AndroidManifest.xml:25:5-20
MERGED from [com.android.support:support-core-utils:24.2.0] /home/prod/ionic2/descarteEcologico/platforms/android/build/intermediates/exploded-aar/com.android.support/support-core-utils/24.2.0/AndroidManifest.xml:25:5-20
MERGED from [com.android.support:support-compat:24.2.0] /home/prod/ionic2/descarteEcologico/platforms/android/build/intermediates/exploded-aar/com.android.support/support-compat/24.2.0/AndroidManifest.xml:25:5-20
MERGED from [com.android.support:support-media-compat:24.2.0] /home/prod/ionic2/descarteEcologico/platforms/android/build/intermediates/exploded-aar/com.android.support/support-media-compat/24.2.0/AndroidManifest.xml:25:5-20
MERGED from [com.android.support:support-compat:24.2.0] /home/prod/ionic2/descarteEcologico/platforms/android/build/intermediates/exploded-aar/com.android.support/support-compat/24.2.0/AndroidManifest.xml:25:5-20
MERGED from [com.android.support:support-core-ui:24.2.0] /home/prod/ionic2/descarteEcologico/platforms/android/build/intermediates/exploded-aar/com.android.support/support-core-ui/24.2.0/AndroidManifest.xml:25:5-20
MERGED from [com.android.support:support-compat:24.2.0] /home/prod/ionic2/descarteEcologico/platforms/android/build/intermediates/exploded-aar/com.android.support/support-compat/24.2.0/AndroidManifest.xml:25:5-20
MERGED from [com.google.android.gms:play-services-maps:9.4.0] /home/prod/ionic2/descarteEcologico/platforms/android/build/intermediates/exploded-aar/com.google.android.gms/play-services-maps/9.4.0/AndroidManifest.xml:27:5-20
MERGED from [com.google.android.gms:play-services-base:9.4.0] /home/prod/ionic2/descarteEcologico/platforms/android/build/intermediates/exploded-aar/com.google.android.gms/play-services-base/9.4.0/AndroidManifest.xml:19:5-23:19
MERGED from [com.google.android.gms:play-services-basement:9.4.0] /home/prod/ionic2/descarteEcologico/platforms/android/build/intermediates/exploded-aar/com.google.android.gms/play-services-basement/9.4.0/AndroidManifest.xml:20:5-24:19
MERGED from [com.android.support:support-v4:24.2.0] /home/prod/ionic2/descarteEcologico/platforms/android/build/intermediates/exploded-aar/com.android.support/support-v4/24.2.0/AndroidManifest.xml:25:5-20
MERGED from [com.android.support:support-compat:24.2.0] /home/prod/ionic2/descarteEcologico/platforms/android/build/intermediates/exploded-aar/com.android.support/support-compat/24.2.0/AndroidManifest.xml:25:5-20
MERGED from [com.android.support:support-core-utils:24.2.0] /home/prod/ionic2/descarteEcologico/platforms/android/build/intermediates/exploded-aar/com.android.support/support-core-utils/24.2.0/AndroidManifest.xml:25:5-20
MERGED from [com.android.support:support-compat:24.2.0] /home/prod/ionic2/descarteEcologico/platforms/android/build/intermediates/exploded-aar/com.android.support/support-compat/24.2.0/AndroidManifest.xml:25:5-20
MERGED from [com.android.support:support-media-compat:24.2.0] /home/prod/ionic2/descarteEcologico/platforms/android/build/intermediates/exploded-aar/com.android.support/support-media-compat/24.2.0/AndroidManifest.xml:25:5-20
MERGED from [com.android.support:support-compat:24.2.0] /home/prod/ionic2/descarteEcologico/platforms/android/build/intermediates/exploded-aar/com.android.support/support-compat/24.2.0/AndroidManifest.xml:25:5-20
MERGED from [com.android.support:support-core-ui:24.2.0] /home/prod/ionic2/descarteEcologico/platforms/android/build/intermediates/exploded-aar/com.android.support/support-core-ui/24.2.0/AndroidManifest.xml:25:5-20
MERGED from [com.android.support:support-compat:24.2.0] /home/prod/ionic2/descarteEcologico/platforms/android/build/intermediates/exploded-aar/com.android.support/support-compat/24.2.0/AndroidManifest.xml:25:5-20
MERGED from [com.android.support:support-fragment:24.2.0] /home/prod/ionic2/descarteEcologico/platforms/android/build/intermediates/exploded-aar/com.android.support/support-fragment/24.2.0/AndroidManifest.xml:25:5-20
MERGED from [com.android.support:support-compat:24.2.0] /home/prod/ionic2/descarteEcologico/platforms/android/build/intermediates/exploded-aar/com.android.support/support-compat/24.2.0/AndroidManifest.xml:25:5-20
MERGED from [com.android.support:support-core-utils:24.2.0] /home/prod/ionic2/descarteEcologico/platforms/android/build/intermediates/exploded-aar/com.android.support/support-core-utils/24.2.0/AndroidManifest.xml:25:5-20
MERGED from [com.android.support:support-compat:24.2.0] /home/prod/ionic2/descarteEcologico/platforms/android/build/intermediates/exploded-aar/com.android.support/support-compat/24.2.0/AndroidManifest.xml:25:5-20
MERGED from [com.android.support:support-media-compat:24.2.0] /home/prod/ionic2/descarteEcologico/platforms/android/build/intermediates/exploded-aar/com.android.support/support-media-compat/24.2.0/AndroidManifest.xml:25:5-20
MERGED from [com.android.support:support-compat:24.2.0] /home/prod/ionic2/descarteEcologico/platforms/android/build/intermediates/exploded-aar/com.android.support/support-compat/24.2.0/AndroidManifest.xml:25:5-20
MERGED from [com.android.support:support-core-ui:24.2.0] /home/prod/ionic2/descarteEcologico/platforms/android/build/intermediates/exploded-aar/com.android.support/support-core-ui/24.2.0/AndroidManifest.xml:25:5-20
MERGED from [com.android.support:support-compat:24.2.0] /home/prod/ionic2/descarteEcologico/platforms/android/build/intermediates/exploded-aar/com.android.support/support-compat/24.2.0/AndroidManifest.xml:25:5-20
MERGED from [com.google.android.gms:play-services-tasks:9.4.0] /home/prod/ionic2/descarteEcologico/platforms/android/build/intermediates/exploded-aar/com.google.android.gms/play-services-tasks/9.4.0/AndroidManifest.xml:5:5-20
MERGED from [com.google.android.gms:play-services-basement:9.4.0] /home/prod/ionic2/descarteEcologico/platforms/android/build/intermediates/exploded-aar/com.google.android.gms/play-services-basement/9.4.0/AndroidManifest.xml:20:5-24:19
MERGED from [com.android.support:support-v4:24.2.0] /home/prod/ionic2/descarteEcologico/platforms/android/build/intermediates/exploded-aar/com.android.support/support-v4/24.2.0/AndroidManifest.xml:25:5-20
MERGED from [com.android.support:support-compat:24.2.0] /home/prod/ionic2/descarteEcologico/platforms/android/build/intermediates/exploded-aar/com.android.support/support-compat/24.2.0/AndroidManifest.xml:25:5-20
MERGED from [com.android.support:support-core-utils:24.2.0] /home/prod/ionic2/descarteEcologico/platforms/android/build/intermediates/exploded-aar/com.android.support/support-core-utils/24.2.0/AndroidManifest.xml:25:5-20
MERGED from [com.android.support:support-compat:24.2.0] /home/prod/ionic2/descarteEcologico/platforms/android/build/intermediates/exploded-aar/com.android.support/support-compat/24.2.0/AndroidManifest.xml:25:5-20
MERGED from [com.android.support:support-media-compat:24.2.0] /home/prod/ionic2/descarteEcologico/platforms/android/build/intermediates/exploded-aar/com.android.support/support-media-compat/24.2.0/AndroidManifest.xml:25:5-20
MERGED from [com.android.support:support-compat:24.2.0] /home/prod/ionic2/descarteEcologico/platforms/android/build/intermediates/exploded-aar/com.android.support/support-compat/24.2.0/AndroidManifest.xml:25:5-20
MERGED from [com.android.support:support-core-ui:24.2.0] /home/prod/ionic2/descarteEcologico/platforms/android/build/intermediates/exploded-aar/com.android.support/support-core-ui/24.2.0/AndroidManifest.xml:25:5-20
MERGED from [com.android.support:support-compat:24.2.0] /home/prod/ionic2/descarteEcologico/platforms/android/build/intermediates/exploded-aar/com.android.support/support-compat/24.2.0/AndroidManifest.xml:25:5-20
MERGED from [com.android.support:support-fragment:24.2.0] /home/prod/ionic2/descarteEcologico/platforms/android/build/intermediates/exploded-aar/com.android.support/support-fragment/24.2.0/AndroidManifest.xml:25:5-20
MERGED from [com.android.support:support-compat:24.2.0] /home/prod/ionic2/descarteEcologico/platforms/android/build/intermediates/exploded-aar/com.android.support/support-compat/24.2.0/AndroidManifest.xml:25:5-20
MERGED from [com.android.support:support-core-utils:24.2.0] /home/prod/ionic2/descarteEcologico/platforms/android/build/intermediates/exploded-aar/com.android.support/support-core-utils/24.2.0/AndroidManifest.xml:25:5-20
MERGED from [com.android.support:support-compat:24.2.0] /home/prod/ionic2/descarteEcologico/platforms/android/build/intermediates/exploded-aar/com.android.support/support-compat/24.2.0/AndroidManifest.xml:25:5-20
MERGED from [com.android.support:support-media-compat:24.2.0] /home/prod/ionic2/descarteEcologico/platforms/android/build/intermediates/exploded-aar/com.android.support/support-media-compat/24.2.0/AndroidManifest.xml:25:5-20
MERGED from [com.android.support:support-compat:24.2.0] /home/prod/ionic2/descarteEcologico/platforms/android/build/intermediates/exploded-aar/com.android.support/support-compat/24.2.0/AndroidManifest.xml:25:5-20
MERGED from [com.android.support:support-core-ui:24.2.0] /home/prod/ionic2/descarteEcologico/platforms/android/build/intermediates/exploded-aar/com.android.support/support-core-ui/24.2.0/AndroidManifest.xml:25:5-20
MERGED from [com.android.support:support-compat:24.2.0] /home/prod/ionic2/descarteEcologico/platforms/android/build/intermediates/exploded-aar/com.android.support/support-compat/24.2.0/AndroidManifest.xml:25:5-20
MERGED from [com.google.android.gms:play-services-basement:9.4.0] /home/prod/ionic2/descarteEcologico/platforms/android/build/intermediates/exploded-aar/com.google.android.gms/play-services-basement/9.4.0/AndroidManifest.xml:20:5-24:19
MERGED from [com.android.support:support-v4:24.2.0] /home/prod/ionic2/descarteEcologico/platforms/android/build/intermediates/exploded-aar/com.android.support/support-v4/24.2.0/AndroidManifest.xml:25:5-20
MERGED from [com.android.support:support-compat:24.2.0] /home/prod/ionic2/descarteEcologico/platforms/android/build/intermediates/exploded-aar/com.android.support/support-compat/24.2.0/AndroidManifest.xml:25:5-20
MERGED from [com.android.support:support-core-utils:24.2.0] /home/prod/ionic2/descarteEcologico/platforms/android/build/intermediates/exploded-aar/com.android.support/support-core-utils/24.2.0/AndroidManifest.xml:25:5-20
MERGED from [com.android.support:support-compat:24.2.0] /home/prod/ionic2/descarteEcologico/platforms/android/build/intermediates/exploded-aar/com.android.support/support-compat/24.2.0/AndroidManifest.xml:25:5-20
MERGED from [com.android.support:support-media-compat:24.2.0] /home/prod/ionic2/descarteEcologico/platforms/android/build/intermediates/exploded-aar/com.android.support/support-media-compat/24.2.0/AndroidManifest.xml:25:5-20
MERGED from [com.android.support:support-compat:24.2.0] /home/prod/ionic2/descarteEcologico/platforms/android/build/intermediates/exploded-aar/com.android.support/support-compat/24.2.0/AndroidManifest.xml:25:5-20
MERGED from [com.android.support:support-core-ui:24.2.0] /home/prod/ionic2/descarteEcologico/platforms/android/build/intermediates/exploded-aar/com.android.support/support-core-ui/24.2.0/AndroidManifest.xml:25:5-20
MERGED from [com.android.support:support-compat:24.2.0] /home/prod/ionic2/descarteEcologico/platforms/android/build/intermediates/exploded-aar/com.android.support/support-compat/24.2.0/AndroidManifest.xml:25:5-20
MERGED from [com.android.support:support-fragment:24.2.0] /home/prod/ionic2/descarteEcologico/platforms/android/build/intermediates/exploded-aar/com.android.support/support-fragment/24.2.0/AndroidManifest.xml:25:5-20
MERGED from [com.android.support:support-compat:24.2.0] /home/prod/ionic2/descarteEcologico/platforms/android/build/intermediates/exploded-aar/com.android.support/support-compat/24.2.0/AndroidManifest.xml:25:5-20
MERGED from [com.android.support:support-core-utils:24.2.0] /home/prod/ionic2/descarteEcologico/platforms/android/build/intermediates/exploded-aar/com.android.support/support-core-utils/24.2.0/AndroidManifest.xml:25:5-20
MERGED from [com.android.support:support-compat:24.2.0] /home/prod/ionic2/descarteEcologico/platforms/android/build/intermediates/exploded-aar/com.android.support/support-compat/24.2.0/AndroidManifest.xml:25:5-20
MERGED from [com.android.support:support-media-compat:24.2.0] /home/prod/ionic2/descarteEcologico/platforms/android/build/intermediates/exploded-aar/com.android.support/support-media-compat/24.2.0/AndroidManifest.xml:25:5-20
MERGED from [com.android.support:support-compat:24.2.0] /home/prod/ionic2/descarteEcologico/platforms/android/build/intermediates/exploded-aar/com.android.support/support-compat/24.2.0/AndroidManifest.xml:25:5-20
MERGED from [com.android.support:support-core-ui:24.2.0] /home/prod/ionic2/descarteEcologico/platforms/android/build/intermediates/exploded-aar/com.android.support/support-core-ui/24.2.0/AndroidManifest.xml:25:5-20
MERGED from [com.android.support:support-compat:24.2.0] /home/prod/ionic2/descarteEcologico/platforms/android/build/intermediates/exploded-aar/com.android.support/support-compat/24.2.0/AndroidManifest.xml:25:5-20
MERGED from [com.google.android.gms:play-services-location:9.4.0] /home/prod/ionic2/descarteEcologico/platforms/android/build/intermediates/exploded-aar/com.google.android.gms/play-services-location/9.4.0/AndroidManifest.xml:19:5-20
MERGED from [com.google.android.gms:play-services-base:9.4.0] /home/prod/ionic2/descarteEcologico/platforms/android/build/intermediates/exploded-aar/com.google.android.gms/play-services-base/9.4.0/AndroidManifest.xml:19:5-23:19
MERGED from [com.google.android.gms:play-services-basement:9.4.0] /home/prod/ionic2/descarteEcologico/platforms/android/build/intermediates/exploded-aar/com.google.android.gms/play-services-basement/9.4.0/AndroidManifest.xml:20:5-24:19
MERGED from [com.android.support:support-v4:24.2.0] /home/prod/ionic2/descarteEcologico/platforms/android/build/intermediates/exploded-aar/com.android.support/support-v4/24.2.0/AndroidManifest.xml:25:5-20
MERGED from [com.android.support:support-compat:24.2.0] /home/prod/ionic2/descarteEcologico/platforms/android/build/intermediates/exploded-aar/com.android.support/support-compat/24.2.0/AndroidManifest.xml:25:5-20
MERGED from [com.android.support:support-core-utils:24.2.0] /home/prod/ionic2/descarteEcologico/platforms/android/build/intermediates/exploded-aar/com.android.support/support-core-utils/24.2.0/AndroidManifest.xml:25:5-20
MERGED from [com.android.support:support-compat:24.2.0] /home/prod/ionic2/descarteEcologico/platforms/android/build/intermediates/exploded-aar/com.android.support/support-compat/24.2.0/AndroidManifest.xml:25:5-20
MERGED from [com.android.support:support-media-compat:24.2.0] /home/prod/ionic2/descarteEcologico/platforms/android/build/intermediates/exploded-aar/com.android.support/support-media-compat/24.2.0/AndroidManifest.xml:25:5-20
MERGED from [com.android.support:support-compat:24.2.0] /home/prod/ionic2/descarteEcologico/platforms/android/build/intermediates/exploded-aar/com.android.support/support-compat/24.2.0/AndroidManifest.xml:25:5-20
MERGED from [com.android.support:support-core-ui:24.2.0] /home/prod/ionic2/descarteEcologico/platforms/android/build/intermediates/exploded-aar/com.android.support/support-core-ui/24.2.0/AndroidManifest.xml:25:5-20
MERGED from [com.android.support:support-compat:24.2.0] /home/prod/ionic2/descarteEcologico/platforms/android/build/intermediates/exploded-aar/com.android.support/support-compat/24.2.0/AndroidManifest.xml:25:5-20
MERGED from [com.android.support:support-fragment:24.2.0] /home/prod/ionic2/descarteEcologico/platforms/android/build/intermediates/exploded-aar/com.android.support/support-fragment/24.2.0/AndroidManifest.xml:25:5-20
MERGED from [com.android.support:support-compat:24.2.0] /home/prod/ionic2/descarteEcologico/platforms/android/build/intermediates/exploded-aar/com.android.support/support-compat/24.2.0/AndroidManifest.xml:25:5-20
MERGED from [com.android.support:support-core-utils:24.2.0] /home/prod/ionic2/descarteEcologico/platforms/android/build/intermediates/exploded-aar/com.android.support/support-core-utils/24.2.0/AndroidManifest.xml:25:5-20
MERGED from [com.android.support:support-compat:24.2.0] /home/prod/ionic2/descarteEcologico/platforms/android/build/intermediates/exploded-aar/com.android.support/support-compat/24.2.0/AndroidManifest.xml:25:5-20
MERGED from [com.android.support:support-media-compat:24.2.0] /home/prod/ionic2/descarteEcologico/platforms/android/build/intermediates/exploded-aar/com.android.support/support-media-compat/24.2.0/AndroidManifest.xml:25:5-20
MERGED from [com.android.support:support-compat:24.2.0] /home/prod/ionic2/descarteEcologico/platforms/android/build/intermediates/exploded-aar/com.android.support/support-compat/24.2.0/AndroidManifest.xml:25:5-20
MERGED from [com.android.support:support-core-ui:24.2.0] /home/prod/ionic2/descarteEcologico/platforms/android/build/intermediates/exploded-aar/com.android.support/support-core-ui/24.2.0/AndroidManifest.xml:25:5-20
MERGED from [com.android.support:support-compat:24.2.0] /home/prod/ionic2/descarteEcologico/platforms/android/build/intermediates/exploded-aar/com.android.support/support-compat/24.2.0/AndroidManifest.xml:25:5-20
MERGED from [com.google.android.gms:play-services-tasks:9.4.0] /home/prod/ionic2/descarteEcologico/platforms/android/build/intermediates/exploded-aar/com.google.android.gms/play-services-tasks/9.4.0/AndroidManifest.xml:5:5-20
MERGED from [com.google.android.gms:play-services-basement:9.4.0] /home/prod/ionic2/descarteEcologico/platforms/android/build/intermediates/exploded-aar/com.google.android.gms/play-services-basement/9.4.0/AndroidManifest.xml:20:5-24:19
MERGED from [com.android.support:support-v4:24.2.0] /home/prod/ionic2/descarteEcologico/platforms/android/build/intermediates/exploded-aar/com.android.support/support-v4/24.2.0/AndroidManifest.xml:25:5-20
MERGED from [com.android.support:support-compat:24.2.0] /home/prod/ionic2/descarteEcologico/platforms/android/build/intermediates/exploded-aar/com.android.support/support-compat/24.2.0/AndroidManifest.xml:25:5-20
MERGED from [com.android.support:support-core-utils:24.2.0] /home/prod/ionic2/descarteEcologico/platforms/android/build/intermediates/exploded-aar/com.android.support/support-core-utils/24.2.0/AndroidManifest.xml:25:5-20
MERGED from [com.android.support:support-compat:24.2.0] /home/prod/ionic2/descarteEcologico/platforms/android/build/intermediates/exploded-aar/com.android.support/support-compat/24.2.0/AndroidManifest.xml:25:5-20
MERGED from [com.android.support:support-media-compat:24.2.0] /home/prod/ionic2/descarteEcologico/platforms/android/build/intermediates/exploded-aar/com.android.support/support-media-compat/24.2.0/AndroidManifest.xml:25:5-20
MERGED from [com.android.support:support-compat:24.2.0] /home/prod/ionic2/descarteEcologico/platforms/android/build/intermediates/exploded-aar/com.android.support/support-compat/24.2.0/AndroidManifest.xml:25:5-20
MERGED from [com.android.support:support-core-ui:24.2.0] /home/prod/ionic2/descarteEcologico/platforms/android/build/intermediates/exploded-aar/com.android.support/support-core-ui/24.2.0/AndroidManifest.xml:25:5-20
MERGED from [com.android.support:support-compat:24.2.0] /home/prod/ionic2/descarteEcologico/platforms/android/build/intermediates/exploded-aar/com.android.support/support-compat/24.2.0/AndroidManifest.xml:25:5-20
MERGED from [com.android.support:support-fragment:24.2.0] /home/prod/ionic2/descarteEcologico/platforms/android/build/intermediates/exploded-aar/com.android.support/support-fragment/24.2.0/AndroidManifest.xml:25:5-20
MERGED from [com.android.support:support-compat:24.2.0] /home/prod/ionic2/descarteEcologico/platforms/android/build/intermediates/exploded-aar/com.android.support/support-compat/24.2.0/AndroidManifest.xml:25:5-20
MERGED from [com.android.support:support-core-utils:24.2.0] /home/prod/ionic2/descarteEcologico/platforms/android/build/intermediates/exploded-aar/com.android.support/support-core-utils/24.2.0/AndroidManifest.xml:25:5-20
MERGED from [com.android.support:support-compat:24.2.0] /home/prod/ionic2/descarteEcologico/platforms/android/build/intermediates/exploded-aar/com.android.support/support-compat/24.2.0/AndroidManifest.xml:25:5-20
MERGED from [com.android.support:support-media-compat:24.2.0] /home/prod/ionic2/descarteEcologico/platforms/android/build/intermediates/exploded-aar/com.android.support/support-media-compat/24.2.0/AndroidManifest.xml:25:5-20
MERGED from [com.android.support:support-compat:24.2.0] /home/prod/ionic2/descarteEcologico/platforms/android/build/intermediates/exploded-aar/com.android.support/support-compat/24.2.0/AndroidManifest.xml:25:5-20
MERGED from [com.android.support:support-core-ui:24.2.0] /home/prod/ionic2/descarteEcologico/platforms/android/build/intermediates/exploded-aar/com.android.support/support-core-ui/24.2.0/AndroidManifest.xml:25:5-20
MERGED from [com.android.support:support-compat:24.2.0] /home/prod/ionic2/descarteEcologico/platforms/android/build/intermediates/exploded-aar/com.android.support/support-compat/24.2.0/AndroidManifest.xml:25:5-20
MERGED from [com.google.android.gms:play-services-basement:9.4.0] /home/prod/ionic2/descarteEcologico/platforms/android/build/intermediates/exploded-aar/com.google.android.gms/play-services-basement/9.4.0/AndroidManifest.xml:20:5-24:19
MERGED from [com.android.support:support-v4:24.2.0] /home/prod/ionic2/descarteEcologico/platforms/android/build/intermediates/exploded-aar/com.android.support/support-v4/24.2.0/AndroidManifest.xml:25:5-20
MERGED from [com.android.support:support-compat:24.2.0] /home/prod/ionic2/descarteEcologico/platforms/android/build/intermediates/exploded-aar/com.android.support/support-compat/24.2.0/AndroidManifest.xml:25:5-20
MERGED from [com.android.support:support-core-utils:24.2.0] /home/prod/ionic2/descarteEcologico/platforms/android/build/intermediates/exploded-aar/com.android.support/support-core-utils/24.2.0/AndroidManifest.xml:25:5-20
MERGED from [com.android.support:support-compat:24.2.0] /home/prod/ionic2/descarteEcologico/platforms/android/build/intermediates/exploded-aar/com.android.support/support-compat/24.2.0/AndroidManifest.xml:25:5-20
MERGED from [com.android.support:support-media-compat:24.2.0] /home/prod/ionic2/descarteEcologico/platforms/android/build/intermediates/exploded-aar/com.android.support/support-media-compat/24.2.0/AndroidManifest.xml:25:5-20
MERGED from [com.android.support:support-compat:24.2.0] /home/prod/ionic2/descarteEcologico/platforms/android/build/intermediates/exploded-aar/com.android.support/support-compat/24.2.0/AndroidManifest.xml:25:5-20
MERGED from [com.android.support:support-core-ui:24.2.0] /home/prod/ionic2/descarteEcologico/platforms/android/build/intermediates/exploded-aar/com.android.support/support-core-ui/24.2.0/AndroidManifest.xml:25:5-20
MERGED from [com.android.support:support-compat:24.2.0] /home/prod/ionic2/descarteEcologico/platforms/android/build/intermediates/exploded-aar/com.android.support/support-compat/24.2.0/AndroidManifest.xml:25:5-20
MERGED from [com.android.support:support-fragment:24.2.0] /home/prod/ionic2/descarteEcologico/platforms/android/build/intermediates/exploded-aar/com.android.support/support-fragment/24.2.0/AndroidManifest.xml:25:5-20
MERGED from [com.android.support:support-compat:24.2.0] /home/prod/ionic2/descarteEcologico/platforms/android/build/intermediates/exploded-aar/com.android.support/support-compat/24.2.0/AndroidManifest.xml:25:5-20
MERGED from [com.android.support:support-core-utils:24.2.0] /home/prod/ionic2/descarteEcologico/platforms/android/build/intermediates/exploded-aar/com.android.support/support-core-utils/24.2.0/AndroidManifest.xml:25:5-20
MERGED from [com.android.support:support-compat:24.2.0] /home/prod/ionic2/descarteEcologico/platforms/android/build/intermediates/exploded-aar/com.android.support/support-compat/24.2.0/AndroidManifest.xml:25:5-20
MERGED from [com.android.support:support-media-compat:24.2.0] /home/prod/ionic2/descarteEcologico/platforms/android/build/intermediates/exploded-aar/com.android.support/support-media-compat/24.2.0/AndroidManifest.xml:25:5-20
MERGED from [com.android.support:support-compat:24.2.0] /home/prod/ionic2/descarteEcologico/platforms/android/build/intermediates/exploded-aar/com.android.support/support-compat/24.2.0/AndroidManifest.xml:25:5-20
MERGED from [com.android.support:support-core-ui:24.2.0] /home/prod/ionic2/descarteEcologico/platforms/android/build/intermediates/exploded-aar/com.android.support/support-core-ui/24.2.0/AndroidManifest.xml:25:5-20
MERGED from [com.android.support:support-compat:24.2.0] /home/prod/ionic2/descarteEcologico/platforms/android/build/intermediates/exploded-aar/com.android.support/support-compat/24.2.0/AndroidManifest.xml:25:5-20
MERGED from [com.android.support:support-v4:24.2.0] /home/prod/ionic2/descarteEcologico/platforms/android/build/intermediates/exploded-aar/com.android.support/support-v4/24.2.0/AndroidManifest.xml:25:5-20
MERGED from [com.android.support:support-compat:24.2.0] /home/prod/ionic2/descarteEcologico/platforms/android/build/intermediates/exploded-aar/com.android.support/support-compat/24.2.0/AndroidManifest.xml:25:5-20
MERGED from [com.android.support:support-core-utils:24.2.0] /home/prod/ionic2/descarteEcologico/platforms/android/build/intermediates/exploded-aar/com.android.support/support-core-utils/24.2.0/AndroidManifest.xml:25:5-20
MERGED from [com.android.support:support-compat:24.2.0] /home/prod/ionic2/descarteEcologico/platforms/android/build/intermediates/exploded-aar/com.android.support/support-compat/24.2.0/AndroidManifest.xml:25:5-20
MERGED from [com.android.support:support-media-compat:24.2.0] /home/prod/ionic2/descarteEcologico/platforms/android/build/intermediates/exploded-aar/com.android.support/support-media-compat/24.2.0/AndroidManifest.xml:25:5-20
MERGED from [com.android.support:support-compat:24.2.0] /home/prod/ionic2/descarteEcologico/platforms/android/build/intermediates/exploded-aar/com.android.support/support-compat/24.2.0/AndroidManifest.xml:25:5-20
MERGED from [com.android.support:support-core-ui:24.2.0] /home/prod/ionic2/descarteEcologico/platforms/android/build/intermediates/exploded-aar/com.android.support/support-core-ui/24.2.0/AndroidManifest.xml:25:5-20
MERGED from [com.android.support:support-compat:24.2.0] /home/prod/ionic2/descarteEcologico/platforms/android/build/intermediates/exploded-aar/com.android.support/support-compat/24.2.0/AndroidManifest.xml:25:5-20
MERGED from [com.android.support:support-fragment:24.2.0] /home/prod/ionic2/descarteEcologico/platforms/android/build/intermediates/exploded-aar/com.android.support/support-fragment/24.2.0/AndroidManifest.xml:25:5-20
MERGED from [com.android.support:support-compat:24.2.0] /home/prod/ionic2/descarteEcologico/platforms/android/build/intermediates/exploded-aar/com.android.support/support-compat/24.2.0/AndroidManifest.xml:25:5-20
MERGED from [com.android.support:support-core-utils:24.2.0] /home/prod/ionic2/descarteEcologico/platforms/android/build/intermediates/exploded-aar/com.android.support/support-core-utils/24.2.0/AndroidManifest.xml:25:5-20
MERGED from [com.android.support:support-compat:24.2.0] /home/prod/ionic2/descarteEcologico/platforms/android/build/intermediates/exploded-aar/com.android.support/support-compat/24.2.0/AndroidManifest.xml:25:5-20
MERGED from [com.android.support:support-media-compat:24.2.0] /home/prod/ionic2/descarteEcologico/platforms/android/build/intermediates/exploded-aar/com.android.support/support-media-compat/24.2.0/AndroidManifest.xml:25:5-20
MERGED from [com.android.support:support-compat:24.2.0] /home/prod/ionic2/descarteEcologico/platforms/android/build/intermediates/exploded-aar/com.android.support/support-compat/24.2.0/AndroidManifest.xml:25:5-20
MERGED from [com.android.support:support-core-ui:24.2.0] /home/prod/ionic2/descarteEcologico/platforms/android/build/intermediates/exploded-aar/com.android.support/support-core-ui/24.2.0/AndroidManifest.xml:25:5-20
MERGED from [com.android.support:support-compat:24.2.0] /home/prod/ionic2/descarteEcologico/platforms/android/build/intermediates/exploded-aar/com.android.support/support-compat/24.2.0/AndroidManifest.xml:25:5-20
	android:supportsRtl
		ADDED from /home/prod/ionic2/descarteEcologico/platforms/android/AndroidManifest.xml:5:116-142
	android:label
		ADDED from /home/prod/ionic2/descarteEcologico/platforms/android/AndroidManifest.xml:5:83-115
	android:icon
		ADDED from /home/prod/ionic2/descarteEcologico/platforms/android/AndroidManifest.xml:5:53-82
	android:hardwareAccelerated
		ADDED from /home/prod/ionic2/descarteEcologico/platforms/android/AndroidManifest.xml:5:18-52
activity#br.com.robsonazevedo.descarteecologico.MainActivity
ADDED from /home/prod/ionic2/descarteEcologico/platforms/android/AndroidManifest.xml:6:9-11:20
	android:windowSoftInputMode
		ADDED from /home/prod/ionic2/descarteEcologico/platforms/android/AndroidManifest.xml:6:257-299
	android:label
		ADDED from /home/prod/ionic2/descarteEcologico/platforms/android/AndroidManifest.xml:6:97-134
	android:configChanges
		ADDED from /home/prod/ionic2/descarteEcologico/platforms/android/AndroidManifest.xml:6:19-96
	android:theme
		ADDED from /home/prod/ionic2/descarteEcologico/platforms/android/AndroidManifest.xml:6:194-256
	android:name
		ADDED from /home/prod/ionic2/descarteEcologico/platforms/android/AndroidManifest.xml:6:166-193
	android:launchMode
		ADDED from /home/prod/ionic2/descarteEcologico/platforms/android/AndroidManifest.xml:6:135-165
intent-filter#android.intent.action.MAIN+android.intent.category.LAUNCHER
ADDED from /home/prod/ionic2/descarteEcologico/platforms/android/AndroidManifest.xml:7:13-10:29
	android:label
		ADDED from /home/prod/ionic2/descarteEcologico/platforms/android/AndroidManifest.xml:7:28-65
action#android.intent.action.MAIN
ADDED from /home/prod/ionic2/descarteEcologico/platforms/android/AndroidManifest.xml:8:17-69
	android:name
		ADDED from /home/prod/ionic2/descarteEcologico/platforms/android/AndroidManifest.xml:8:25-66
category#android.intent.category.LAUNCHER
ADDED from /home/prod/ionic2/descarteEcologico/platforms/android/AndroidManifest.xml:9:17-77
	android:name
		ADDED from /home/prod/ionic2/descarteEcologico/platforms/android/AndroidManifest.xml:9:27-74
meta-data#com.facebook.sdk.ApplicationId
ADDED from /home/prod/ionic2/descarteEcologico/platforms/android/AndroidManifest.xml:12:9-102
	android:name
		ADDED from /home/prod/ionic2/descarteEcologico/platforms/android/AndroidManifest.xml:12:20-65
	android:value
		ADDED from /home/prod/ionic2/descarteEcologico/platforms/android/AndroidManifest.xml:12:66-99
meta-data#com.facebook.sdk.ApplicationName
ADDED from /home/prod/ionic2/descarteEcologico/platforms/android/AndroidManifest.xml:13:9-106
	android:name
		ADDED from /home/prod/ionic2/descarteEcologico/platforms/android/AndroidManifest.xml:13:20-67
	android:value
		ADDED from /home/prod/ionic2/descarteEcologico/platforms/android/AndroidManifest.xml:13:68-103
activity#com.facebook.FacebookActivity
ADDED from /home/prod/ionic2/descarteEcologico/platforms/android/AndroidManifest.xml:14:9-246
	android:label
		ADDED from /home/prod/ionic2/descarteEcologico/platforms/android/AndroidManifest.xml:14:103-138
	android:configChanges
		ADDED from /home/prod/ionic2/descarteEcologico/platforms/android/AndroidManifest.xml:14:19-102
	android:theme
		ADDED from /home/prod/ionic2/descarteEcologico/platforms/android/AndroidManifest.xml:14:184-243
	android:name
		ADDED from /home/prod/ionic2/descarteEcologico/platforms/android/AndroidManifest.xml:14:139-183
meta-data#com.google.android.maps.v2.API_KEY
ADDED from /home/prod/ionic2/descarteEcologico/platforms/android/AndroidManifest.xml:15:9-128
	android:name
		ADDED from /home/prod/ionic2/descarteEcologico/platforms/android/AndroidManifest.xml:15:20-69
	android:value
		ADDED from /home/prod/ionic2/descarteEcologico/platforms/android/AndroidManifest.xml:15:70-125
meta-data#com.google.android.gms.version
ADDED from /home/prod/ionic2/descarteEcologico/platforms/android/AndroidManifest.xml:16:9-122
MERGED from [com.google.android.gms:play-services-basement:9.4.0] /home/prod/ionic2/descarteEcologico/platforms/android/build/intermediates/exploded-aar/com.google.android.gms/play-services-basement/9.4.0/AndroidManifest.xml:21:9-23:69
MERGED from [com.google.android.gms:play-services-basement:9.4.0] /home/prod/ionic2/descarteEcologico/platforms/android/build/intermediates/exploded-aar/com.google.android.gms/play-services-basement/9.4.0/AndroidManifest.xml:21:9-23:69
MERGED from [com.google.android.gms:play-services-basement:9.4.0] /home/prod/ionic2/descarteEcologico/platforms/android/build/intermediates/exploded-aar/com.google.android.gms/play-services-basement/9.4.0/AndroidManifest.xml:21:9-23:69
MERGED from [com.google.android.gms:play-services-basement:9.4.0] /home/prod/ionic2/descarteEcologico/platforms/android/build/intermediates/exploded-aar/com.google.android.gms/play-services-basement/9.4.0/AndroidManifest.xml:21:9-23:69
MERGED from [com.google.android.gms:play-services-basement:9.4.0] /home/prod/ionic2/descarteEcologico/platforms/android/build/intermediates/exploded-aar/com.google.android.gms/play-services-basement/9.4.0/AndroidManifest.xml:21:9-23:69
MERGED from [com.google.android.gms:play-services-basement:9.4.0] /home/prod/ionic2/descarteEcologico/platforms/android/build/intermediates/exploded-aar/com.google.android.gms/play-services-basement/9.4.0/AndroidManifest.xml:21:9-23:69
	android:name
		ADDED from /home/prod/ionic2/descarteEcologico/platforms/android/AndroidManifest.xml:16:20-65
	android:value
		ADDED from /home/prod/ionic2/descarteEcologico/platforms/android/AndroidManifest.xml:16:66-119
activity#com.marianhello.bgloc.DummyActivity
ADDED from /home/prod/ionic2/descarteEcologico/platforms/android/AndroidManifest.xml:17:9-372
	android:noHistory
		ADDED from /home/prod/ionic2/descarteEcologico/platforms/android/AndroidManifest.xml:17:268-292
	android:theme
		ADDED from /home/prod/ionic2/descarteEcologico/platforms/android/AndroidManifest.xml:17:323-369
	android:stateNotNeeded
		ADDED from /home/prod/ionic2/descarteEcologico/platforms/android/AndroidManifest.xml:17:293-322
	android:enabled
		ADDED from /home/prod/ionic2/descarteEcologico/platforms/android/AndroidManifest.xml:17:126-148
	android:clearTaskOnLaunch
		ADDED from /home/prod/ionic2/descarteEcologico/platforms/android/AndroidManifest.xml:17:93-125
	android:allowTaskReparenting
		ADDED from /home/prod/ionic2/descarteEcologico/platforms/android/AndroidManifest.xml:17:19-54
	android:excludeFromRecents
		ADDED from /home/prod/ionic2/descarteEcologico/platforms/android/AndroidManifest.xml:17:149-182
	android:name
		ADDED from /home/prod/ionic2/descarteEcologico/platforms/android/AndroidManifest.xml:17:217-267
	android:finishOnTaskLaunch
		ADDED from /home/prod/ionic2/descarteEcologico/platforms/android/AndroidManifest.xml:17:183-216
	android:alwaysRetainTaskState
		ADDED from /home/prod/ionic2/descarteEcologico/platforms/android/AndroidManifest.xml:17:55-92
service#com.marianhello.bgloc.LocationService
ADDED from /home/prod/ionic2/descarteEcologico/platforms/android/AndroidManifest.xml:18:9-121
	android:exported
		ADDED from /home/prod/ionic2/descarteEcologico/platforms/android/AndroidManifest.xml:18:41-65
	android:enabled
		ADDED from /home/prod/ionic2/descarteEcologico/platforms/android/AndroidManifest.xml:18:18-40
	android:name
		ADDED from /home/prod/ionic2/descarteEcologico/platforms/android/AndroidManifest.xml:18:66-118
receiver#com.marianhello.bgloc.BootCompletedReceiver
ADDED from /home/prod/ionic2/descarteEcologico/platforms/android/AndroidManifest.xml:19:9-23:20
	android:exported
		ADDED from /home/prod/ionic2/descarteEcologico/platforms/android/AndroidManifest.xml:19:42-65
	android:enabled
		ADDED from /home/prod/ionic2/descarteEcologico/platforms/android/AndroidManifest.xml:19:19-41
	android:name
		ADDED from /home/prod/ionic2/descarteEcologico/platforms/android/AndroidManifest.xml:19:66-124
intent-filter#android.intent.action.BOOT_COMPLETED
ADDED from /home/prod/ionic2/descarteEcologico/platforms/android/AndroidManifest.xml:20:13-22:29
action#android.intent.action.BOOT_COMPLETED
ADDED from /home/prod/ionic2/descarteEcologico/platforms/android/AndroidManifest.xml:21:17-79
	android:name
		ADDED from /home/prod/ionic2/descarteEcologico/platforms/android/AndroidManifest.xml:21:25-76
uses-sdk
ADDED from /home/prod/ionic2/descarteEcologico/platforms/android/AndroidManifest.xml:25:5-74
MERGED from [com.facebook.android:facebook-android-sdk:4.8.2] /home/prod/ionic2/descarteEcologico/platforms/android/build/intermediates/exploded-aar/com.facebook.android/facebook-android-sdk/4.8.2/AndroidManifest.xml:24:5-26:41
MERGED from [com.android.support:support-v4:24.2.0] /home/prod/ionic2/descarteEcologico/platforms/android/build/intermediates/exploded-aar/com.android.support/support-v4/24.2.0/AndroidManifest.xml:21:5-23:54
MERGED from [com.android.support:support-compat:24.2.0] /home/prod/ionic2/descarteEcologico/platforms/android/build/intermediates/exploded-aar/com.android.support/support-compat/24.2.0/AndroidManifest.xml:21:5-23:58
MERGED from [com.android.support:support-core-utils:24.2.0] /home/prod/ionic2/descarteEcologico/platforms/android/build/intermediates/exploded-aar/com.android.support/support-core-utils/24.2.0/AndroidManifest.xml:21:5-23:61
MERGED from [com.android.support:support-compat:24.2.0] /home/prod/ionic2/descarteEcologico/platforms/android/build/intermediates/exploded-aar/com.android.support/support-compat/24.2.0/AndroidManifest.xml:21:5-23:58
MERGED from [com.android.support:support-media-compat:24.2.0] /home/prod/ionic2/descarteEcologico/platforms/android/build/intermediates/exploded-aar/com.android.support/support-media-compat/24.2.0/AndroidManifest.xml:21:5-23:63
MERGED from [com.android.support:support-compat:24.2.0] /home/prod/ionic2/descarteEcologico/platforms/android/build/intermediates/exploded-aar/com.android.support/support-compat/24.2.0/AndroidManifest.xml:21:5-23:58
MERGED from [com.android.support:support-core-ui:24.2.0] /home/prod/ionic2/descarteEcologico/platforms/android/build/intermediates/exploded-aar/com.android.support/support-core-ui/24.2.0/AndroidManifest.xml:21:5-23:58
MERGED from [com.android.support:support-compat:24.2.0] /home/prod/ionic2/descarteEcologico/platforms/android/build/intermediates/exploded-aar/com.android.support/support-compat/24.2.0/AndroidManifest.xml:21:5-23:58
MERGED from [com.android.support:support-fragment:24.2.0] /home/prod/ionic2/descarteEcologico/platforms/android/build/intermediates/exploded-aar/com.android.support/support-fragment/24.2.0/AndroidManifest.xml:21:5-23:60
MERGED from [com.android.support:support-compat:24.2.0] /home/prod/ionic2/descarteEcologico/platforms/android/build/intermediates/exploded-aar/com.android.support/support-compat/24.2.0/AndroidManifest.xml:21:5-23:58
MERGED from [com.android.support:support-core-utils:24.2.0] /home/prod/ionic2/descarteEcologico/platforms/android/build/intermediates/exploded-aar/com.android.support/support-core-utils/24.2.0/AndroidManifest.xml:21:5-23:61
MERGED from [com.android.support:support-compat:24.2.0] /home/prod/ionic2/descarteEcologico/platforms/android/build/intermediates/exploded-aar/com.android.support/support-compat/24.2.0/AndroidManifest.xml:21:5-23:58
MERGED from [com.android.support:support-media-compat:24.2.0] /home/prod/ionic2/descarteEcologico/platforms/android/build/intermediates/exploded-aar/com.android.support/support-media-compat/24.2.0/AndroidManifest.xml:21:5-23:63
MERGED from [com.android.support:support-compat:24.2.0] /home/prod/ionic2/descarteEcologico/platforms/android/build/intermediates/exploded-aar/com.android.support/support-compat/24.2.0/AndroidManifest.xml:21:5-23:58
MERGED from [com.android.support:support-core-ui:24.2.0] /home/prod/ionic2/descarteEcologico/platforms/android/build/intermediates/exploded-aar/com.android.support/support-core-ui/24.2.0/AndroidManifest.xml:21:5-23:58
MERGED from [com.android.support:support-compat:24.2.0] /home/prod/ionic2/descarteEcologico/platforms/android/build/intermediates/exploded-aar/com.android.support/support-compat/24.2.0/AndroidManifest.xml:21:5-23:58
MERGED from [com.android.support:multidex:1.0.1] /home/prod/ionic2/descarteEcologico/platforms/android/build/intermediates/exploded-aar/com.android.support/multidex/1.0.1/AndroidManifest.xml:18:5-42
MERGED from [com.google.android.gms:play-services-maps:9.4.0] /home/prod/ionic2/descarteEcologico/platforms/android/build/intermediates/exploded-aar/com.google.android.gms/play-services-maps/9.4.0/AndroidManifest.xml:26:5-42
MERGED from [com.google.android.gms:play-services-base:9.4.0] /home/prod/ionic2/descarteEcologico/platforms/android/build/intermediates/exploded-aar/com.google.android.gms/play-services-base/9.4.0/AndroidManifest.xml:18:5-42
MERGED from [com.google.android.gms:play-services-basement:9.4.0] /home/prod/ionic2/descarteEcologico/platforms/android/build/intermediates/exploded-aar/com.google.android.gms/play-services-basement/9.4.0/AndroidManifest.xml:18:5-42
MERGED from [com.android.support:support-v4:24.2.0] /home/prod/ionic2/descarteEcologico/platforms/android/build/intermediates/exploded-aar/com.android.support/support-v4/24.2.0/AndroidManifest.xml:21:5-23:54
MERGED from [com.android.support:support-compat:24.2.0] /home/prod/ionic2/descarteEcologico/platforms/android/build/intermediates/exploded-aar/com.android.support/support-compat/24.2.0/AndroidManifest.xml:21:5-23:58
MERGED from [com.android.support:support-core-utils:24.2.0] /home/prod/ionic2/descarteEcologico/platforms/android/build/intermediates/exploded-aar/com.android.support/support-core-utils/24.2.0/AndroidManifest.xml:21:5-23:61
MERGED from [com.android.support:support-compat:24.2.0] /home/prod/ionic2/descarteEcologico/platforms/android/build/intermediates/exploded-aar/com.android.support/support-compat/24.2.0/AndroidManifest.xml:21:5-23:58
MERGED from [com.android.support:support-media-compat:24.2.0] /home/prod/ionic2/descarteEcologico/platforms/android/build/intermediates/exploded-aar/com.android.support/support-media-compat/24.2.0/AndroidManifest.xml:21:5-23:63
MERGED from [com.android.support:support-compat:24.2.0] /home/prod/ionic2/descarteEcologico/platforms/android/build/intermediates/exploded-aar/com.android.support/support-compat/24.2.0/AndroidManifest.xml:21:5-23:58
MERGED from [com.android.support:support-core-ui:24.2.0] /home/prod/ionic2/descarteEcologico/platforms/android/build/intermediates/exploded-aar/com.android.support/support-core-ui/24.2.0/AndroidManifest.xml:21:5-23:58
MERGED from [com.android.support:support-compat:24.2.0] /home/prod/ionic2/descarteEcologico/platforms/android/build/intermediates/exploded-aar/com.android.support/support-compat/24.2.0/AndroidManifest.xml:21:5-23:58
MERGED from [com.android.support:support-fragment:24.2.0] /home/prod/ionic2/descarteEcologico/platforms/android/build/intermediates/exploded-aar/com.android.support/support-fragment/24.2.0/AndroidManifest.xml:21:5-23:60
MERGED from [com.android.support:support-compat:24.2.0] /home/prod/ionic2/descarteEcologico/platforms/android/build/intermediates/exploded-aar/com.android.support/support-compat/24.2.0/AndroidManifest.xml:21:5-23:58
MERGED from [com.android.support:support-core-utils:24.2.0] /home/prod/ionic2/descarteEcologico/platforms/android/build/intermediates/exploded-aar/com.android.support/support-core-utils/24.2.0/AndroidManifest.xml:21:5-23:61
MERGED from [com.android.support:support-compat:24.2.0] /home/prod/ionic2/descarteEcologico/platforms/android/build/intermediates/exploded-aar/com.android.support/support-compat/24.2.0/AndroidManifest.xml:21:5-23:58
MERGED from [com.android.support:support-media-compat:24.2.0] /home/prod/ionic2/descarteEcologico/platforms/android/build/intermediates/exploded-aar/com.android.support/support-media-compat/24.2.0/AndroidManifest.xml:21:5-23:63
MERGED from [com.android.support:support-compat:24.2.0] /home/prod/ionic2/descarteEcologico/platforms/android/build/intermediates/exploded-aar/com.android.support/support-compat/24.2.0/AndroidManifest.xml:21:5-23:58
MERGED from [com.android.support:support-core-ui:24.2.0] /home/prod/ionic2/descarteEcologico/platforms/android/build/intermediates/exploded-aar/com.android.support/support-core-ui/24.2.0/AndroidManifest.xml:21:5-23:58
MERGED from [com.android.support:support-compat:24.2.0] /home/prod/ionic2/descarteEcologico/platforms/android/build/intermediates/exploded-aar/com.android.support/support-compat/24.2.0/AndroidManifest.xml:21:5-23:58
MERGED from [com.google.android.gms:play-services-tasks:9.4.0] /home/prod/ionic2/descarteEcologico/platforms/android/build/intermediates/exploded-aar/com.google.android.gms/play-services-tasks/9.4.0/AndroidManifest.xml:4:5-43
MERGED from [com.google.android.gms:play-services-basement:9.4.0] /home/prod/ionic2/descarteEcologico/platforms/android/build/intermediates/exploded-aar/com.google.android.gms/play-services-basement/9.4.0/AndroidManifest.xml:18:5-42
MERGED from [com.android.support:support-v4:24.2.0] /home/prod/ionic2/descarteEcologico/platforms/android/build/intermediates/exploded-aar/com.android.support/support-v4/24.2.0/AndroidManifest.xml:21:5-23:54
MERGED from [com.android.support:support-compat:24.2.0] /home/prod/ionic2/descarteEcologico/platforms/android/build/intermediates/exploded-aar/com.android.support/support-compat/24.2.0/AndroidManifest.xml:21:5-23:58
MERGED from [com.android.support:support-core-utils:24.2.0] /home/prod/ionic2/descarteEcologico/platforms/android/build/intermediates/exploded-aar/com.android.support/support-core-utils/24.2.0/AndroidManifest.xml:21:5-23:61
MERGED from [com.android.support:support-compat:24.2.0] /home/prod/ionic2/descarteEcologico/platforms/android/build/intermediates/exploded-aar/com.android.support/support-compat/24.2.0/AndroidManifest.xml:21:5-23:58
MERGED from [com.android.support:support-media-compat:24.2.0] /home/prod/ionic2/descarteEcologico/platforms/android/build/intermediates/exploded-aar/com.android.support/support-media-compat/24.2.0/AndroidManifest.xml:21:5-23:63
MERGED from [com.android.support:support-compat:24.2.0] /home/prod/ionic2/descarteEcologico/platforms/android/build/intermediates/exploded-aar/com.android.support/support-compat/24.2.0/AndroidManifest.xml:21:5-23:58
MERGED from [com.android.support:support-core-ui:24.2.0] /home/prod/ionic2/descarteEcologico/platforms/android/build/intermediates/exploded-aar/com.android.support/support-core-ui/24.2.0/AndroidManifest.xml:21:5-23:58
MERGED from [com.android.support:support-compat:24.2.0] /home/prod/ionic2/descarteEcologico/platforms/android/build/intermediates/exploded-aar/com.android.support/support-compat/24.2.0/AndroidManifest.xml:21:5-23:58
MERGED from [com.android.support:support-fragment:24.2.0] /home/prod/ionic2/descarteEcologico/platforms/android/build/intermediates/exploded-aar/com.android.support/support-fragment/24.2.0/AndroidManifest.xml:21:5-23:60
MERGED from [com.android.support:support-compat:24.2.0] /home/prod/ionic2/descarteEcologico/platforms/android/build/intermediates/exploded-aar/com.android.support/support-compat/24.2.0/AndroidManifest.xml:21:5-23:58
MERGED from [com.android.support:support-core-utils:24.2.0] /home/prod/ionic2/descarteEcologico/platforms/android/build/intermediates/exploded-aar/com.android.support/support-core-utils/24.2.0/AndroidManifest.xml:21:5-23:61
MERGED from [com.android.support:support-compat:24.2.0] /home/prod/ionic2/descarteEcologico/platforms/android/build/intermediates/exploded-aar/com.android.support/support-compat/24.2.0/AndroidManifest.xml:21:5-23:58
MERGED from [com.android.support:support-media-compat:24.2.0] /home/prod/ionic2/descarteEcologico/platforms/android/build/intermediates/exploded-aar/com.android.support/support-media-compat/24.2.0/AndroidManifest.xml:21:5-23:63
MERGED from [com.android.support:support-compat:24.2.0] /home/prod/ionic2/descarteEcologico/platforms/android/build/intermediates/exploded-aar/com.android.support/support-compat/24.2.0/AndroidManifest.xml:21:5-23:58
MERGED from [com.android.support:support-core-ui:24.2.0] /home/prod/ionic2/descarteEcologico/platforms/android/build/intermediates/exploded-aar/com.android.support/support-core-ui/24.2.0/AndroidManifest.xml:21:5-23:58
MERGED from [com.android.support:support-compat:24.2.0] /home/prod/ionic2/descarteEcologico/platforms/android/build/intermediates/exploded-aar/com.android.support/support-compat/24.2.0/AndroidManifest.xml:21:5-23:58
MERGED from [com.google.android.gms:play-services-basement:9.4.0] /home/prod/ionic2/descarteEcologico/platforms/android/build/intermediates/exploded-aar/com.google.android.gms/play-services-basement/9.4.0/AndroidManifest.xml:18:5-42
MERGED from [com.android.support:support-v4:24.2.0] /home/prod/ionic2/descarteEcologico/platforms/android/build/intermediates/exploded-aar/com.android.support/support-v4/24.2.0/AndroidManifest.xml:21:5-23:54
MERGED from [com.android.support:support-compat:24.2.0] /home/prod/ionic2/descarteEcologico/platforms/android/build/intermediates/exploded-aar/com.android.support/support-compat/24.2.0/AndroidManifest.xml:21:5-23:58
MERGED from [com.android.support:support-core-utils:24.2.0] /home/prod/ionic2/descarteEcologico/platforms/android/build/intermediates/exploded-aar/com.android.support/support-core-utils/24.2.0/AndroidManifest.xml:21:5-23:61
MERGED from [com.android.support:support-compat:24.2.0] /home/prod/ionic2/descarteEcologico/platforms/android/build/intermediates/exploded-aar/com.android.support/support-compat/24.2.0/AndroidManifest.xml:21:5-23:58
MERGED from [com.android.support:support-media-compat:24.2.0] /home/prod/ionic2/descarteEcologico/platforms/android/build/intermediates/exploded-aar/com.android.support/support-media-compat/24.2.0/AndroidManifest.xml:21:5-23:63
MERGED from [com.android.support:support-compat:24.2.0] /home/prod/ionic2/descarteEcologico/platforms/android/build/intermediates/exploded-aar/com.android.support/support-compat/24.2.0/AndroidManifest.xml:21:5-23:58
MERGED from [com.android.support:support-core-ui:24.2.0] /home/prod/ionic2/descarteEcologico/platforms/android/build/intermediates/exploded-aar/com.android.support/support-core-ui/24.2.0/AndroidManifest.xml:21:5-23:58
MERGED from [com.android.support:support-compat:24.2.0] /home/prod/ionic2/descarteEcologico/platforms/android/build/intermediates/exploded-aar/com.android.support/support-compat/24.2.0/AndroidManifest.xml:21:5-23:58
MERGED from [com.android.support:support-fragment:24.2.0] /home/prod/ionic2/descarteEcologico/platforms/android/build/intermediates/exploded-aar/com.android.support/support-fragment/24.2.0/AndroidManifest.xml:21:5-23:60
MERGED from [com.android.support:support-compat:24.2.0] /home/prod/ionic2/descarteEcologico/platforms/android/build/intermediates/exploded-aar/com.android.support/support-compat/24.2.0/AndroidManifest.xml:21:5-23:58
MERGED from [com.android.support:support-core-utils:24.2.0] /home/prod/ionic2/descarteEcologico/platforms/android/build/intermediates/exploded-aar/com.android.support/support-core-utils/24.2.0/AndroidManifest.xml:21:5-23:61
MERGED from [com.android.support:support-compat:24.2.0] /home/prod/ionic2/descarteEcologico/platforms/android/build/intermediates/exploded-aar/com.android.support/support-compat/24.2.0/AndroidManifest.xml:21:5-23:58
MERGED from [com.android.support:support-media-compat:24.2.0] /home/prod/ionic2/descarteEcologico/platforms/android/build/intermediates/exploded-aar/com.android.support/support-media-compat/24.2.0/AndroidManifest.xml:21:5-23:63
MERGED from [com.android.support:support-compat:24.2.0] /home/prod/ionic2/descarteEcologico/platforms/android/build/intermediates/exploded-aar/com.android.support/support-compat/24.2.0/AndroidManifest.xml:21:5-23:58
MERGED from [com.android.support:support-core-ui:24.2.0] /home/prod/ionic2/descarteEcologico/platforms/android/build/intermediates/exploded-aar/com.android.support/support-core-ui/24.2.0/AndroidManifest.xml:21:5-23:58
MERGED from [com.android.support:support-compat:24.2.0] /home/prod/ionic2/descarteEcologico/platforms/android/build/intermediates/exploded-aar/com.android.support/support-compat/24.2.0/AndroidManifest.xml:21:5-23:58
MERGED from [com.google.android.gms:play-services-location:9.4.0] /home/prod/ionic2/descarteEcologico/platforms/android/build/intermediates/exploded-aar/com.google.android.gms/play-services-location/9.4.0/AndroidManifest.xml:18:5-42
MERGED from [com.google.android.gms:play-services-base:9.4.0] /home/prod/ionic2/descarteEcologico/platforms/android/build/intermediates/exploded-aar/com.google.android.gms/play-services-base/9.4.0/AndroidManifest.xml:18:5-42
MERGED from [com.google.android.gms:play-services-basement:9.4.0] /home/prod/ionic2/descarteEcologico/platforms/android/build/intermediates/exploded-aar/com.google.android.gms/play-services-basement/9.4.0/AndroidManifest.xml:18:5-42
MERGED from [com.android.support:support-v4:24.2.0] /home/prod/ionic2/descarteEcologico/platforms/android/build/intermediates/exploded-aar/com.android.support/support-v4/24.2.0/AndroidManifest.xml:21:5-23:54
MERGED from [com.android.support:support-compat:24.2.0] /home/prod/ionic2/descarteEcologico/platforms/android/build/intermediates/exploded-aar/com.android.support/support-compat/24.2.0/AndroidManifest.xml:21:5-23:58
MERGED from [com.android.support:support-core-utils:24.2.0] /home/prod/ionic2/descarteEcologico/platforms/android/build/intermediates/exploded-aar/com.android.support/support-core-utils/24.2.0/AndroidManifest.xml:21:5-23:61
MERGED from [com.android.support:support-compat:24.2.0] /home/prod/ionic2/descarteEcologico/platforms/android/build/intermediates/exploded-aar/com.android.support/support-compat/24.2.0/AndroidManifest.xml:21:5-23:58
MERGED from [com.android.support:support-media-compat:24.2.0] /home/prod/ionic2/descarteEcologico/platforms/android/build/intermediates/exploded-aar/com.android.support/support-media-compat/24.2.0/AndroidManifest.xml:21:5-23:63
MERGED from [com.android.support:support-compat:24.2.0] /home/prod/ionic2/descarteEcologico/platforms/android/build/intermediates/exploded-aar/com.android.support/support-compat/24.2.0/AndroidManifest.xml:21:5-23:58
MERGED from [com.android.support:support-core-ui:24.2.0] /home/prod/ionic2/descarteEcologico/platforms/android/build/intermediates/exploded-aar/com.android.support/support-core-ui/24.2.0/AndroidManifest.xml:21:5-23:58
MERGED from [com.android.support:support-compat:24.2.0] /home/prod/ionic2/descarteEcologico/platforms/android/build/intermediates/exploded-aar/com.android.support/support-compat/24.2.0/AndroidManifest.xml:21:5-23:58
MERGED from [com.android.support:support-fragment:24.2.0] /home/prod/ionic2/descarteEcologico/platforms/android/build/intermediates/exploded-aar/com.android.support/support-fragment/24.2.0/AndroidManifest.xml:21:5-23:60
MERGED from [com.android.support:support-compat:24.2.0] /home/prod/ionic2/descarteEcologico/platforms/android/build/intermediates/exploded-aar/com.android.support/support-compat/24.2.0/AndroidManifest.xml:21:5-23:58
MERGED from [com.android.support:support-core-utils:24.2.0] /home/prod/ionic2/descarteEcologico/platforms/android/build/intermediates/exploded-aar/com.android.support/support-core-utils/24.2.0/AndroidManifest.xml:21:5-23:61
MERGED from [com.android.support:support-compat:24.2.0] /home/prod/ionic2/descarteEcologico/platforms/android/build/intermediates/exploded-aar/com.android.support/support-compat/24.2.0/AndroidManifest.xml:21:5-23:58
MERGED from [com.android.support:support-media-compat:24.2.0] /home/prod/ionic2/descarteEcologico/platforms/android/build/intermediates/exploded-aar/com.android.support/support-media-compat/24.2.0/AndroidManifest.xml:21:5-23:63
MERGED from [com.android.support:support-compat:24.2.0] /home/prod/ionic2/descarteEcologico/platforms/android/build/intermediates/exploded-aar/com.android.support/support-compat/24.2.0/AndroidManifest.xml:21:5-23:58
MERGED from [com.android.support:support-core-ui:24.2.0] /home/prod/ionic2/descarteEcologico/platforms/android/build/intermediates/exploded-aar/com.android.support/support-core-ui/24.2.0/AndroidManifest.xml:21:5-23:58
MERGED from [com.android.support:support-compat:24.2.0] /home/prod/ionic2/descarteEcologico/platforms/android/build/intermediates/exploded-aar/com.android.support/support-compat/24.2.0/AndroidManifest.xml:21:5-23:58
MERGED from [com.google.android.gms:play-services-tasks:9.4.0] /home/prod/ionic2/descarteEcologico/platforms/android/build/intermediates/exploded-aar/com.google.android.gms/play-services-tasks/9.4.0/AndroidManifest.xml:4:5-43
MERGED from [com.google.android.gms:play-services-basement:9.4.0] /home/prod/ionic2/descarteEcologico/platforms/android/build/intermediates/exploded-aar/com.google.android.gms/play-services-basement/9.4.0/AndroidManifest.xml:18:5-42
MERGED from [com.android.support:support-v4:24.2.0] /home/prod/ionic2/descarteEcologico/platforms/android/build/intermediates/exploded-aar/com.android.support/support-v4/24.2.0/AndroidManifest.xml:21:5-23:54
MERGED from [com.android.support:support-compat:24.2.0] /home/prod/ionic2/descarteEcologico/platforms/android/build/intermediates/exploded-aar/com.android.support/support-compat/24.2.0/AndroidManifest.xml:21:5-23:58
MERGED from [com.android.support:support-core-utils:24.2.0] /home/prod/ionic2/descarteEcologico/platforms/android/build/intermediates/exploded-aar/com.android.support/support-core-utils/24.2.0/AndroidManifest.xml:21:5-23:61
MERGED from [com.android.support:support-compat:24.2.0] /home/prod/ionic2/descarteEcologico/platforms/android/build/intermediates/exploded-aar/com.android.support/support-compat/24.2.0/AndroidManifest.xml:21:5-23:58
MERGED from [com.android.support:support-media-compat:24.2.0] /home/prod/ionic2/descarteEcologico/platforms/android/build/intermediates/exploded-aar/com.android.support/support-media-compat/24.2.0/AndroidManifest.xml:21:5-23:63
MERGED from [com.android.support:support-compat:24.2.0] /home/prod/ionic2/descarteEcologico/platforms/android/build/intermediates/exploded-aar/com.android.support/support-compat/24.2.0/AndroidManifest.xml:21:5-23:58
MERGED from [com.android.support:support-core-ui:24.2.0] /home/prod/ionic2/descarteEcologico/platforms/android/build/intermediates/exploded-aar/com.android.support/support-core-ui/24.2.0/AndroidManifest.xml:21:5-23:58
MERGED from [com.android.support:support-compat:24.2.0] /home/prod/ionic2/descarteEcologico/platforms/android/build/intermediates/exploded-aar/com.android.support/support-compat/24.2.0/AndroidManifest.xml:21:5-23:58
MERGED from [com.android.support:support-fragment:24.2.0] /home/prod/ionic2/descarteEcologico/platforms/android/build/intermediates/exploded-aar/com.android.support/support-fragment/24.2.0/AndroidManifest.xml:21:5-23:60
MERGED from [com.android.support:support-compat:24.2.0] /home/prod/ionic2/descarteEcologico/platforms/android/build/intermediates/exploded-aar/com.android.support/support-compat/24.2.0/AndroidManifest.xml:21:5-23:58
MERGED from [com.android.support:support-core-utils:24.2.0] /home/prod/ionic2/descarteEcologico/platforms/android/build/intermediates/exploded-aar/com.android.support/support-core-utils/24.2.0/AndroidManifest.xml:21:5-23:61
MERGED from [com.android.support:support-compat:24.2.0] /home/prod/ionic2/descarteEcologico/platforms/android/build/intermediates/exploded-aar/com.android.support/support-compat/24.2.0/AndroidManifest.xml:21:5-23:58
MERGED from [com.android.support:support-media-compat:24.2.0] /home/prod/ionic2/descarteEcologico/platforms/android/build/intermediates/exploded-aar/com.android.support/support-media-compat/24.2.0/AndroidManifest.xml:21:5-23:63
MERGED from [com.android.support:support-compat:24.2.0] /home/prod/ionic2/descarteEcologico/platforms/android/build/intermediates/exploded-aar/com.android.support/support-compat/24.2.0/AndroidManifest.xml:21:5-23:58
MERGED from [com.android.support:support-core-ui:24.2.0] /home/prod/ionic2/descarteEcologico/platforms/android/build/intermediates/exploded-aar/com.android.support/support-core-ui/24.2.0/AndroidManifest.xml:21:5-23:58
MERGED from [com.android.support:support-compat:24.2.0] /home/prod/ionic2/descarteEcologico/platforms/android/build/intermediates/exploded-aar/com.android.support/support-compat/24.2.0/AndroidManifest.xml:21:5-23:58
MERGED from [com.google.android.gms:play-services-basement:9.4.0] /home/prod/ionic2/descarteEcologico/platforms/android/build/intermediates/exploded-aar/com.google.android.gms/play-services-basement/9.4.0/AndroidManifest.xml:18:5-42
MERGED from [com.android.support:support-v4:24.2.0] /home/prod/ionic2/descarteEcologico/platforms/android/build/intermediates/exploded-aar/com.android.support/support-v4/24.2.0/AndroidManifest.xml:21:5-23:54
MERGED from [com.android.support:support-compat:24.2.0] /home/prod/ionic2/descarteEcologico/platforms/android/build/intermediates/exploded-aar/com.android.support/support-compat/24.2.0/AndroidManifest.xml:21:5-23:58
MERGED from [com.android.support:support-core-utils:24.2.0] /home/prod/ionic2/descarteEcologico/platforms/android/build/intermediates/exploded-aar/com.android.support/support-core-utils/24.2.0/AndroidManifest.xml:21:5-23:61
MERGED from [com.android.support:support-compat:24.2.0] /home/prod/ionic2/descarteEcologico/platforms/android/build/intermediates/exploded-aar/com.android.support/support-compat/24.2.0/AndroidManifest.xml:21:5-23:58
MERGED from [com.android.support:support-media-compat:24.2.0] /home/prod/ionic2/descarteEcologico/platforms/android/build/intermediates/exploded-aar/com.android.support/support-media-compat/24.2.0/AndroidManifest.xml:21:5-23:63
MERGED from [com.android.support:support-compat:24.2.0] /home/prod/ionic2/descarteEcologico/platforms/android/build/intermediates/exploded-aar/com.android.support/support-compat/24.2.0/AndroidManifest.xml:21:5-23:58
MERGED from [com.android.support:support-core-ui:24.2.0] /home/prod/ionic2/descarteEcologico/platforms/android/build/intermediates/exploded-aar/com.android.support/support-core-ui/24.2.0/AndroidManifest.xml:21:5-23:58
MERGED from [com.android.support:support-compat:24.2.0] /home/prod/ionic2/descarteEcologico/platforms/android/build/intermediates/exploded-aar/com.android.support/support-compat/24.2.0/AndroidManifest.xml:21:5-23:58
MERGED from [com.android.support:support-fragment:24.2.0] /home/prod/ionic2/descarteEcologico/platforms/android/build/intermediates/exploded-aar/com.android.support/support-fragment/24.2.0/AndroidManifest.xml:21:5-23:60
MERGED from [com.android.support:support-compat:24.2.0] /home/prod/ionic2/descarteEcologico/platforms/android/build/intermediates/exploded-aar/com.android.support/support-compat/24.2.0/AndroidManifest.xml:21:5-23:58
MERGED from [com.android.support:support-core-utils:24.2.0] /home/prod/ionic2/descarteEcologico/platforms/android/build/intermediates/exploded-aar/com.android.support/support-core-utils/24.2.0/AndroidManifest.xml:21:5-23:61
MERGED from [com.android.support:support-compat:24.2.0] /home/prod/ionic2/descarteEcologico/platforms/android/build/intermediates/exploded-aar/com.android.support/support-compat/24.2.0/AndroidManifest.xml:21:5-23:58
MERGED from [com.android.support:support-media-compat:24.2.0] /home/prod/ionic2/descarteEcologico/platforms/android/build/intermediates/exploded-aar/com.android.support/support-media-compat/24.2.0/AndroidManifest.xml:21:5-23:63
MERGED from [com.android.support:support-compat:24.2.0] /home/prod/ionic2/descarteEcologico/platforms/android/build/intermediates/exploded-aar/com.android.support/support-compat/24.2.0/AndroidManifest.xml:21:5-23:58
MERGED from [com.android.support:support-core-ui:24.2.0] /home/prod/ionic2/descarteEcologico/platforms/android/build/intermediates/exploded-aar/com.android.support/support-core-ui/24.2.0/AndroidManifest.xml:21:5-23:58
MERGED from [com.android.support:support-compat:24.2.0] /home/prod/ionic2/descarteEcologico/platforms/android/build/intermediates/exploded-aar/com.android.support/support-compat/24.2.0/AndroidManifest.xml:21:5-23:58
MERGED from [com.android.support:support-v4:24.2.0] /home/prod/ionic2/descarteEcologico/platforms/android/build/intermediates/exploded-aar/com.android.support/support-v4/24.2.0/AndroidManifest.xml:21:5-23:54
MERGED from [com.android.support:support-compat:24.2.0] /home/prod/ionic2/descarteEcologico/platforms/android/build/intermediates/exploded-aar/com.android.support/support-compat/24.2.0/AndroidManifest.xml:21:5-23:58
MERGED from [com.android.support:support-core-utils:24.2.0] /home/prod/ionic2/descarteEcologico/platforms/android/build/intermediates/exploded-aar/com.android.support/support-core-utils/24.2.0/AndroidManifest.xml:21:5-23:61
MERGED from [com.android.support:support-compat:24.2.0] /home/prod/ionic2/descarteEcologico/platforms/android/build/intermediates/exploded-aar/com.android.support/support-compat/24.2.0/AndroidManifest.xml:21:5-23:58
MERGED from [com.android.support:support-media-compat:24.2.0] /home/prod/ionic2/descarteEcologico/platforms/android/build/intermediates/exploded-aar/com.android.support/support-media-compat/24.2.0/AndroidManifest.xml:21:5-23:63
MERGED from [com.android.support:support-compat:24.2.0] /home/prod/ionic2/descarteEcologico/platforms/android/build/intermediates/exploded-aar/com.android.support/support-compat/24.2.0/AndroidManifest.xml:21:5-23:58
MERGED from [com.android.support:support-core-ui:24.2.0] /home/prod/ionic2/descarteEcologico/platforms/android/build/intermediates/exploded-aar/com.android.support/support-core-ui/24.2.0/AndroidManifest.xml:21:5-23:58
MERGED from [com.android.support:support-compat:24.2.0] /home/prod/ionic2/descarteEcologico/platforms/android/build/intermediates/exploded-aar/com.android.support/support-compat/24.2.0/AndroidManifest.xml:21:5-23:58
MERGED from [com.android.support:support-fragment:24.2.0] /home/prod/ionic2/descarteEcologico/platforms/android/build/intermediates/exploded-aar/com.android.support/support-fragment/24.2.0/AndroidManifest.xml:21:5-23:60
MERGED from [com.android.support:support-compat:24.2.0] /home/prod/ionic2/descarteEcologico/platforms/android/build/intermediates/exploded-aar/com.android.support/support-compat/24.2.0/AndroidManifest.xml:21:5-23:58
MERGED from [com.android.support:support-core-utils:24.2.0] /home/prod/ionic2/descarteEcologico/platforms/android/build/intermediates/exploded-aar/com.android.support/support-core-utils/24.2.0/AndroidManifest.xml:21:5-23:61
MERGED from [com.android.support:support-compat:24.2.0] /home/prod/ionic2/descarteEcologico/platforms/android/build/intermediates/exploded-aar/com.android.support/support-compat/24.2.0/AndroidManifest.xml:21:5-23:58
MERGED from [com.android.support:support-media-compat:24.2.0] /home/prod/ionic2/descarteEcologico/platforms/android/build/intermediates/exploded-aar/com.android.support/support-media-compat/24.2.0/AndroidManifest.xml:21:5-23:63
MERGED from [com.android.support:support-compat:24.2.0] /home/prod/ionic2/descarteEcologico/platforms/android/build/intermediates/exploded-aar/com.android.support/support-compat/24.2.0/AndroidManifest.xml:21:5-23:58
MERGED from [com.android.support:support-core-ui:24.2.0] /home/prod/ionic2/descarteEcologico/platforms/android/build/intermediates/exploded-aar/com.android.support/support-core-ui/24.2.0/AndroidManifest.xml:21:5-23:58
MERGED from [com.android.support:support-compat:24.2.0] /home/prod/ionic2/descarteEcologico/platforms/android/build/intermediates/exploded-aar/com.android.support/support-compat/24.2.0/AndroidManifest.xml:21:5-23:58
MERGED from [android:CordovaLib:unspecified:debug] /home/prod/ionic2/descarteEcologico/platforms/android/build/intermediates/exploded-aar/android/CordovaLib/unspecified/debug/AndroidManifest.xml:25:5-44
	android:targetSdkVersion
		ADDED from /home/prod/ionic2/descarteEcologico/platforms/android/AndroidManifest.xml:25:42-71
	android:minSdkVersion
		ADDED from /home/prod/ionic2/descarteEcologico/platforms/android/AndroidManifest.xml:25:15-41
	tools:overrideLibrary
		ADDED from [com.android.support:support-v4:24.2.0] /home/prod/ionic2/descarteEcologico/platforms/android/build/intermediates/exploded-aar/com.android.support/support-v4/24.2.0/AndroidManifest.xml:23:9-51
uses-permission#android.permission.ACCESS_COARSE_LOCATION
ADDED from /home/prod/ionic2/descarteEcologico/platforms/android/AndroidManifest.xml:26:5-81
	android:name
		ADDED from /home/prod/ionic2/descarteEcologico/platforms/android/AndroidManifest.xml:26:22-78
uses-permission#android.permission.ACCESS_FINE_LOCATION
ADDED from /home/prod/ionic2/descarteEcologico/platforms/android/AndroidManifest.xml:27:5-79
	android:name
		ADDED from /home/prod/ionic2/descarteEcologico/platforms/android/AndroidManifest.xml:27:22-76
uses-permission#android.permission.ACCESS_NETWORK_STATE
ADDED from /home/prod/ionic2/descarteEcologico/platforms/android/AndroidManifest.xml:28:5-79
MERGED from [com.google.android.gms:play-services-maps:9.4.0] /home/prod/ionic2/descarteEcologico/platforms/android/build/intermediates/exploded-aar/com.google.android.gms/play-services-maps/9.4.0/AndroidManifest.xml:20:5-78
	android:name
		ADDED from /home/prod/ionic2/descarteEcologico/platforms/android/AndroidManifest.xml:28:22-76
uses-permission#com.google.android.providers.gsf.permission.READ_GSERVICES
ADDED from /home/prod/ionic2/descarteEcologico/platforms/android/AndroidManifest.xml:29:5-98
	android:name
		ADDED from /home/prod/ionic2/descarteEcologico/platforms/android/AndroidManifest.xml:29:22-95
uses-feature#0x00020000
ADDED from /home/prod/ionic2/descarteEcologico/platforms/android/AndroidManifest.xml:30:5-78
MERGED from [com.google.android.gms:play-services-maps:9.4.0] /home/prod/ionic2/descarteEcologico/platforms/android/build/intermediates/exploded-aar/com.google.android.gms/play-services-maps/9.4.0/AndroidManifest.xml:22:5-24:33
	android:required
		ADDED from /home/prod/ionic2/descarteEcologico/platforms/android/AndroidManifest.xml:30:52-75
	android:glEsVersion
		ADDED from /home/prod/ionic2/descarteEcologico/platforms/android/AndroidManifest.xml:30:19-51
uses-permission#android.permission.RECEIVE_BOOT_COMPLETED
ADDED from /home/prod/ionic2/descarteEcologico/platforms/android/AndroidManifest.xml:31:5-81
	android:name
		ADDED from /home/prod/ionic2/descarteEcologico/platforms/android/AndroidManifest.xml:31:22-78
uses-permission#com.google.android.gms.permission.ACTIVITY_RECOGNITION
ADDED from /home/prod/ionic2/descarteEcologico/platforms/android/AndroidManifest.xml:32:5-94
	android:name
		ADDED from /home/prod/ionic2/descarteEcologico/platforms/android/AndroidManifest.xml:32:22-91
uses-permission#android.permission.ACCESS_LOCATION_EXTRA_COMMANDS
ADDED from /home/prod/ionic2/descarteEcologico/platforms/android/AndroidManifest.xml:33:5-89
	android:name
		ADDED from /home/prod/ionic2/descarteEcologico/platforms/android/AndroidManifest.xml:33:22-86
uses-permission#android.permission.WAKE_LOCK
ADDED from /home/prod/ionic2/descarteEcologico/platforms/android/AndroidManifest.xml:34:5-68
	android:name
		ADDED from /home/prod/ionic2/descarteEcologico/platforms/android/AndroidManifest.xml:34:22-65
activity#com.google.android.gms.common.api.GoogleApiActivity
ADDED from [com.google.android.gms:play-services-base:9.4.0] /home/prod/ionic2/descarteEcologico/platforms/android/build/intermediates/exploded-aar/com.google.android.gms/play-services-base/9.4.0/AndroidManifest.xml:20:9-22:45
MERGED from [com.google.android.gms:play-services-base:9.4.0] /home/prod/ionic2/descarteEcologico/platforms/android/build/intermediates/exploded-aar/com.google.android.gms/play-services-base/9.4.0/AndroidManifest.xml:20:9-22:45
	android:theme
		ADDED from [com.google.android.gms:play-services-base:9.4.0] /home/prod/ionic2/descarteEcologico/platforms/android/build/intermediates/exploded-aar/com.google.android.gms/play-services-base/9.4.0/AndroidManifest.xml:21:19-78
	android:exported
		ADDED from [com.google.android.gms:play-services-base:9.4.0] /home/prod/ionic2/descarteEcologico/platforms/android/build/intermediates/exploded-aar/com.google.android.gms/play-services-base/9.4.0/AndroidManifest.xml:22:19-43
	android:name
		ADDED from [com.google.android.gms:play-services-base:9.4.0] /home/prod/ionic2/descarteEcologico/platforms/android/build/intermediates/exploded-aar/com.google.android.gms/play-services-base/9.4.0/AndroidManifest.xml:20:19-85
